1 10 20
100 200 125
201 210 89
900 1000 174
246 632 144
601 211 144
298 737 171
662 161 145
786 218 171
350 684 145
423 118 144
60 73 116
214 816 171
12 545 144
953 294 179
596 583 119
359 486 134
237 79 128
842 18 171
21 525 144
21 837 171
900 913 130
816 849 135
57 276 128
486 574 142
436 271 144
91 483 144
317 336 144
306 855 171
999980 999917 259
1 2 2
1 1 1
999998 999999 259
9036 1209 262
2750 6757 262
4675 6702 262
9850 9871 211
8562 1126 262
2718 1973 209
1292 3452 217
4439 7119 262
6897 1393 262
9018 4493 262
1362 1665 180
1274 7172 262
4400 4192 215
3086 3246 199
6467 3190 262
4816 4199 215
2716 2113 209
5500 8775 262
5667 4233 236
8108 7593 252
6508 7815 257
4412 5985 236
5324 6664 262
1386 5999 238
4593 6999 262
5532 3892 215
3002 4445 238
3520 8857 262
3813 7895 262
2114 8267 262
4632 7852 262
5599 5200 236
7282 1056 262
6341 9090 257
2772 2944 217
8544 2582 262
4403 5579 236
4590 1998 238
6366 4121 262
2506 4292 238
7603 5975 262
2364 2424 165
5123 2622 238
5030 4732 210
3023 6116 238
5266 6753 262
4812 2333 238
2509 4660 238
9736 5837 262
5209 7201 262
3268 2259 217
5171 9718 262
3531 9456 262
8486 7461 252
8963 1338 262
5484 9507 262
3117 4067 238
4590 5380 210
5010 1252 238
4325 3122 238
2496 2825 191
6127 2044 238
4544 7598 262
7352 7746 239
4121 9937 262
6734 1251 262
9767 9017 260
2384 8095 262
9967 7287 260
7470 9223 252
8463 2528 262
8537 6664 257
9133 7294 252
7819 7269 239
9528 9090 260
