...............
----------------------------------------------------------------------
Ran 15 tests in 4.782s

OK
Name             Stmts   Miss Branch BrPart  Cover   Missing
------------------------------------------------------------
Collatz.py          32      0     14      0   100%
TestCollatz.py      66      0      0      0   100%
------------------------------------------------------------
TOTAL               98      0     14      0   100%
